<svg version="1.1"
     xmlns="http://www.w3.org/2000/svg"
     xmlns:xlink="http://www.w3.org/1999/xlink"
     width="747" height="594"
     viewBox="0 0 10.376 8.25">
  <style>
    .thin {
      stroke: lightgray;
      stroke-width: 0.015;
      fill: none;
    }
    .thick {
      stroke: gray;
      stroke-width: 0.030;
      fill: none;
    }
    .dashed {
      stroke: lightgray;
      stroke-width: 0.015;
      stroke-dasharray: 0.0625;
      fill: none;
    }
  </style>
  <defs>
    <!-- page bounds -->
    <g id="twopage">
      <rect x="0" y="0" width="10.376" height="8.25" stroke="none" fill="gray"/>
      <rect x="0.125" y="0.125" width="10.126" height="8" stroke="none" fill="white"/>
      <rect x="5.125" y="0.125" width="0.126" height="8" stroke="none" fill="gray"/>
    </g>
    <!-- page guides -->
    <g id="concentric">
      <circle x="0" y="0" r="0.5" class="thin"/>
      <circle x="0" y="0" r="1" class="thin"/>
      <circle x="0" y="0" r="1.5" class="thin"/>
      <circle x="0" y="0" r="2" class="thin"/>
    </g>
    <g id="pageguides">
      <line x1="0" y1="0" x2="5" y2="8" class="thin"/>
      <line x1="0" y1="8" x2="5" y2="0" class="thin"/>
      <rect x="0.125" y="0.125" width="4.75" height="7.75" class="dashed"/>
      <rect x="0.25" y="0.25" width="4.5" height="7.5" class="dashed"/>
      <use x="0" y="0" xlink:href="#concentric" />
      <use x="5" y="0" xlink:href="#concentric" />
      <use x="2.5" y="4" xlink:href="#concentric" />
      <use x="0" y="8" xlink:href="#concentric" />
      <use x="5" y="8" xlink:href="#concentric" />
    </g>
  </defs>
  <use x="0" y="0" xlink:href="#twopage" />
  <use x="0.125" y="0.125" xlink:href="#pageguides" />
  <use x="5.251" y="0.125" xlink:href="#pageguides" />
</svg>
